<?xml version="1.0" encoding="UTF-8"?>
<svg width="179.34" height="76.401" color-interpolation-filters="sRGB" data-v-0dd9719b="" preserveAspectRatio="xMidYMid" version="1.0" viewBox="0 0 179.34 76.401" xmlns="http://www.w3.org/2000/svg">
 <g transform="translate(1.451e-7 58.541)" fill="#2c1e1c">
  <path d="m0 13.83h2.62v-5.57h5.34v-2.12h-5.34v-3.47h6.42v-2.29h-9.04zm10.63 0h2.54v-9.93h-2.54zm0-11.31h2.54v-2.52h-2.54zm13.96 8.92-2.48-0.75c-0.29 0.63-1.15 1.17-2.07 1.17-0.35 0-0.68-0.07-1-0.22-0.93-0.43-1.59-1.42-1.59-2.77 0-1.66 0.95-2.98 2.59-2.98 0.97 0 1.65 0.49 2.03 1.14l2.48-0.76c-0.74-1.48-2.28-2.54-4.49-2.54-0.81 0-1.53 0.14-2.18 0.42-1.72 0.74-3.05 2.31-3.05 4.72 0 0.68 0.13 1.33 0.37 1.96 0.72 1.82 2.36 3.19 4.88 3.19 2.19 0 3.83-1.07 4.51-2.58zm7.5 1.88-0.51-2.01c-0.32 0.14-0.9 0.36-1.38 0.36-0.6 0-0.95-0.32-0.95-0.97v-4.85h2.08v-1.95h-2.08v-3.22h-2.54v3.22h-1.31v1.95h1.31v5.71c0 1.61 0.98 2.44 2.58 2.44 1.03 0 2.1-0.37 2.8-0.68zm1.33 0.51h2.54v-9.93h-2.54zm0-11.31h2.54v-2.52h-2.54zm14.05 8.9-2.17-0.6c-0.31 0.76-1.31 1.34-2.35 1.34-1.53 0-2.5-1.06-2.64-2.48h7.68c0.05-0.22 0.05-0.56 0.05-0.85 0-0.67-0.11-1.31-0.35-1.93-0.68-1.82-2.33-3.17-4.82-3.17-0.81 0-1.54 0.14-2.19 0.42-1.74 0.74-3.06 2.34-3.06 4.77 0 0.69 0.13 1.34 0.37 1.95 0.72 1.8 2.37 3.15 4.86 3.15 2.22 0 3.9-1.1 4.62-2.6zm-2.04-3.39h-5.15c0.09-1.39 1.06-2.46 2.55-2.46 1.47 0 2.48 1.07 2.6 2.46zm6.57 5.8h2.75l3.65-9.93h-2.38l-2.54 7.87-2.52-7.87h-2.61zm16.61-2.41-2.17-0.6c-0.31 0.76-1.3 1.34-2.35 1.34-1.53 0-2.5-1.06-2.64-2.48h7.68c0.05-0.22 0.05-0.56 0.05-0.85 0-0.67-0.11-1.31-0.35-1.93-0.68-1.82-2.33-3.17-4.82-3.17-0.81 0-1.54 0.14-2.19 0.42-1.74 0.74-3.06 2.34-3.06 4.77 0 0.69 0.13 1.34 0.37 1.95 0.72 1.8 2.37 3.15 4.86 3.15 2.23 0 3.9-1.1 4.62-2.6zm-2.04-3.39h-5.15c0.09-1.39 1.06-2.46 2.55-2.46 1.47 0 2.48 1.07 2.6 2.46z"/>
  <path d="m72.18 13.83h1.32v-4.96h3.98l3.16 4.96h1.5l-3.3-5.19c0.46-0.09 0.87-0.26 1.24-0.5 1-0.68 1.76-1.89 1.76-3.54 0-0.51-0.1-1.02-0.3-1.53-0.54-1.39-1.78-2.69-3.68-2.69h-5.68zm1.32-6.14v-6.14h4.28c0.37 0 0.72 0.09 1.05 0.25 0.93 0.45 1.68 1.45 1.68 2.8 0 0.41-0.06 0.79-0.19 1.16-0.34 1-1.11 1.93-2.42 1.93zm14.82 5.34c-0.48 0-0.94-0.09-1.36-0.27-1.24-0.54-2.18-1.75-2.3-3.4h8.45c0.01-0.04 0.02-0.11 0.02-0.21v-0.3c0-0.68-0.12-1.33-0.36-1.93-0.68-1.71-2.18-3.13-4.53-3.13-0.71 0-1.36 0.14-1.97 0.41-1.65 0.73-2.96 2.33-2.96 4.67 0 0.7 0.13 1.37 0.37 1.99 0.69 1.72 2.21 3.16 4.58 3.16 2.03 0 3.6-1.01 4.2-2.46l-1.11-0.31c-0.44 1.02-1.61 1.78-3.03 1.78zm-0.06-8.24c0.48 0 0.93 0.09 1.35 0.27 1.24 0.52 2.17 1.68 2.29 3.31h-7.26c0.04-0.51 0.16-0.99 0.35-1.44 0.52-1.17 1.62-2.14 3.27-2.14zm13.88 1.75 1.25-0.4c-0.66-1.35-2.05-2.35-4.01-2.35-0.73 0-1.4 0.13-2.01 0.4-1.66 0.73-2.94 2.33-2.94 4.68 0 0.7 0.13 1.37 0.37 1.99 0.69 1.72 2.23 3.16 4.6 3.16 1.99 0 3.52-1 4.09-2.44l-1.27-0.38c-0.08 0.22-0.21 0.44-0.4 0.64-0.53 0.57-1.4 1.04-2.48 1.04-0.49 0-0.96-0.1-1.39-0.31-1.25-0.59-2.21-1.89-2.21-3.7 0-0.57 0.09-1.1 0.28-1.58 0.48-1.27 1.59-2.36 3.3-2.36 1.33 0 2.33 0.7 2.82 1.61zm8.55-2.75c-1.84 0-3.21 1.12-3.89 2.41v-6.2h-1.28v13.83h1.28v-6.04c0.12-0.41 0.29-0.78 0.53-1.12 0.57-0.84 1.57-1.71 2.92-1.71 1.73 0 2.28 1.45 2.28 3.36v5.51h1.28v-5.78c0-2.39-0.75-4.26-3.12-4.26zm10.51 9.57-0.34-1.05c-0.29 0.2-0.94 0.44-1.5 0.44-0.67 0-1.14-0.39-1.19-1.06v-6.71h2.27v-1.02h-2.27v-3.33h-1.29v3.33h-1.36v1.02h1.36v7.07c0 1.23 0.86 1.89 2.09 1.89 0.89 0 1.64-0.29 2.23-0.58zm8.73-2.3c0-2.42-3.03-2.48-4.97-3.07-0.73-0.23-1.33-0.48-1.33-1.4 0-1.32 1.09-1.83 2.42-1.83 1.26 0 2.32 0.45 2.98 1.13l0.62-0.76c-0.74-0.78-2.04-1.34-3.56-1.34-2.05 0-3.7 0.95-3.7 2.99 0 0.83 0.29 1.3 0.81 1.63 0.92 0.6 2.57 0.87 3.81 1.22 0.82 0.24 1.67 0.56 1.67 1.55 0 1.32-1.21 1.85-2.61 1.85-1.55 0-2.59-0.58-3.54-1.36l-0.59 0.87c0.95 0.86 2.44 1.48 4.15 1.48 2.11 0 3.84-0.96 3.84-2.96zm3.26-5.19v-1.91h-1.15v13.9h1.29v-6.08c0.7 1.17 1.95 2.24 3.75 2.24 0.65 0 1.26-0.14 1.81-0.41 1.55-0.77 2.66-2.42 2.66-4.71 0-1.47-0.6-2.71-1.33-3.55-0.74-0.84-1.85-1.56-3.35-1.56-1.69 0-2.97 1-3.68 2.08zm3.53 7.01c-0.37 0-0.72-0.06-1.06-0.19-1.09-0.4-1.89-1.24-2.33-2.29v-3.03c0.05-0.33 0.18-0.64 0.4-0.94 0.55-0.74 1.59-1.5 2.83-1.5 0.52 0 1.01 0.1 1.45 0.32 1.23 0.59 2.23 1.88 2.23 3.65 0 0.51-0.08 1-0.25 1.47-0.45 1.31-1.54 2.51-3.27 2.51zm11.93-7.78v-1.18c-0.06-0.01-0.14-0.02-0.25-0.02-1.68 0-2.86 1.18-3.46 2.43v-2.37h-1.21v9.87h1.28v-6.14c0.5-1.48 1.79-2.54 3.64-2.59zm8.01 7.08 0.04 0.78c0.03 0.6 0.43 0.93 1.06 0.93 0.12 0 0.28-0.02 0.49-0.06v-1.14c-0.31 0-0.47-0.17-0.47-0.53v-4.45c0-2.45-1.52-3.92-3.98-3.92-1.2 0-2.43 0.43-3.71 1.29l0.45 0.85c0.87-0.61 1.89-1.17 3.17-1.17 1.74 0 2.78 1.1 2.78 2.84v0.89c-0.75-0.31-1.87-0.51-2.91-0.51-0.61 0-1.17 0.07-1.67 0.21-1.25 0.36-2.46 1.21-2.46 2.76 0 0.43 0.08 0.83 0.24 1.2 0.47 1.06 1.53 1.87 3.03 1.87 1.77 0 3.13-0.78 3.94-1.84zm-2.91-3.39c1.04 0 1.95 0.21 2.74 0.51v1.61c0 0.31-0.16 0.57-0.34 0.74-0.56 0.81-1.77 1.38-3.12 1.38-1.32 0-2.35-0.86-2.35-2.17 0-1.42 1.53-2.07 3.07-2.07zm13.24 3.39 0.04 0.78c0.02 0.6 0.42 0.93 1.06 0.93 0.11 0 0.27-0.02 0.49-0.06v-1.14c-0.32 0-0.47-0.17-0.47-0.53v-4.45c0-2.45-1.52-3.92-3.98-3.92-1.2 0-2.44 0.43-3.72 1.29l0.46 0.85c0.87-0.61 1.88-1.17 3.16-1.17 1.74 0 2.79 1.1 2.79 2.84v0.89c-0.76-0.31-1.88-0.51-2.92-0.51-0.61 0-1.16 0.07-1.67 0.21-1.25 0.36-2.46 1.21-2.46 2.76 0 0.43 0.08 0.83 0.25 1.2 0.46 1.06 1.52 1.87 3.03 1.87 1.76 0 3.13-0.78 3.94-1.84zm-2.92-3.39c1.04 0 1.95 0.21 2.75 0.51v1.61c0 0.31-0.17 0.57-0.34 0.74-0.57 0.81-1.77 1.38-3.13 1.38-1.31 0-2.35-0.86-2.35-2.17 0-1.42 1.53-2.07 3.07-2.07zm8.11 5.04v-3.09l2.12-1.97 3.64 5.06h1.4l-4.19-5.82 4.04-4.03h-1.46l-5.55 5.42v-9.4h-1.29v13.83z" fill="#2c1e1c"/>
 </g>
 <path d="m98.239 19.407 6.4983-6.4983 13.211 24.422-28.278 12.782-28.278-12.782 13.282-24.351 6.4983 6.4983m8.4978 30.635 15.639-15.567-15.639-31.349-15.639 31.278 15.639 15.639" fill="none" stroke="#92694e" stroke-miterlimit="10" stroke-width="2.8564"/>
</svg>
